{
    "category": "makanan",
    "success": true,
    "status": 200,
    "message": "Successful",
    "total": 8,
    "data": [
        {
            "id": 1,
            "title": "Pancakes",
            "price": 15000,
            "img": "https://images.unsplash.com/photo-1587113835509-861d9b7336d0?ixid=MnwxMjA3fDB8MHxzZWFyY2h8Mjh8fHBhbmNha2VzfGVufDB8fDB8fA%3D%3D&ixlib=rb-1.2.1&auto=format&fit=crop&w=500&q=60"
        },
        {
            "id": 2,
            "title": "Sandwich",
            "price": 12000,
            "img": "https://images.unsplash.com/photo-1619096252214-ef06c45683e3?ixid=MnwxMjA3fDB8MHxwaG90by1wYWdlfHx8fGVufDB8fHx8&ixlib=rb-1.2.1&auto=format&fit=crop&w=625&q=80"
        },
        {
            "id": 3,
            "title": "Carbonara",
            "price": 25000,
            "img": "https://images.unsplash.com/photo-1579631542720-3a87824fff86?ixid=MnwxMjA3fDB8MHxzZWFyY2h8MTJ8fHNwYWdoZXR0aSUyMGNhcmJvbmFyYXxlbnwwfHwwfHw%3D&ixlib=rb-1.2.1&auto=format&fit=crop&w=500&q=60"
        },
        {
            "id": 4,
            "title": "Salad",
            "price": 15000,
            "img": "https://images.unsplash.com/photo-1546793665-c74683f339c1?ixid=MnwxMjA3fDB8MHxwaG90by1wYWdlfHx8fGVufDB8fHx8&ixlib=rb-1.2.1&auto=format&fit=crop&w=334&q=80"
        },
        {
            "id": 5,
            "title": "Shrimp Pasta",
            "price": 22000,
            "img": "https://images.unsplash.com/photo-1572015124294-488267231e35?ixlib=rb-1.2.1&ixid=MnwxMjA3fDB8MHxwaG90by1wYWdlfHx8fGVufDB8fHx8&auto=format&fit=crop&w=667&q=80"
        },
        {
            "id": 6,
            "title": "Fish Curry",
            "price": 30000,
            "img": "https://images.unsplash.com/photo-1574484284002-952d92456975?ixlib=rb-1.2.1&ixid=MnwxMjA3fDB8MHxwaG90by1wYWdlfHx8fGVufDB8fHx8&auto=format&fit=crop&w=334&q=80"
        },
        {
            "id": 7,
            "title": "Lasagna",
            "price": 35000,
            "img": "https://images.unsplash.com/photo-1588418440629-7e2811259e7b?ixid=MnwxMjA3fDB8MHxwaG90by1wYWdlfHx8fGVufDB8fHx8&ixlib=rb-1.2.1&auto=format&fit=crop&w=334&q=80"
        },
        {
            "id": 8,
            "title": "Chicken Steak",
            "price": 30000,
            "img": "https://images.unsplash.com/photo-1598515214211-89d3c73ae83b?ixid=MnwxMjA3fDB8MHxwaG90by1wYWdlfHx8fGVufDB8fHx8&ixlib=rb-1.2.1&auto=format&fit=crop&w=750&q=80"
        }
    ]
}
